…
    ## A LDA_VEM topic model with 4 topics.

We need to extract the per-topic-per-word probabilities, called β
(“beta”), from the model. This designates the probability for each
term that it belongs to every one of the n topics we generated.

``` r
un_topics <- tidytext::tidy(un_lda, matrix = "beta")
un_topics
```

    ## # A tibble: 12,400 × 3
    ##    topic term            beta
    ##    <int> <chr>          <dbl>
    ##  1     1 access      0.00107 
    ##  2     2 access      0.000481
    ##  3     3 access      0.00103 
    ##  4     4 access      0.000651
    ##  5     1 accordingly 0.000145
    ##  6     2 accordingly 0.000263
    ##  7     3 accordingly 0.000421
    ##  8     4 accordingly 0.00113 
    ##  9     1 account     0.00222 
    ## 10     2 account     0.00544 
    ## # … with 12,390 more rows
…
